Homework1
…
## The following objects are masked from 'package:base':
## 
##     date, intersect, setdiff, union

library(readxl)

dollarexchange <- read_excel('EVDS.xlsx')
setnames(dollarexchange,names(dollarexchange),c('Date', 'Months', 'Exchangerate'))
dollarexchange

## # A tibble: 203 x 3
##    Date    Months Exchangerate
##    <chr>    <dbl>        <dbl>
##  1 2004.01      1         1.34
##  2 2004.02      2         1.32
##  3 2004.03      3         1.32
##  4 2004.04      4         1.35
##  5 2004.05      5         1.50
##  6 2004.06      6         1.49
##  7 2004.07      7         1.45
##  8 2004.08      8         1.47
##  9 2004.09      9         1.50
## 10 2004.10     10         1.48
## # ... with 193 more rows
…
On the other hand we will examine the data of searches for Dollar keyword in Turkey Google Trends. This data can show us a different perspective of the people in Turkeys interest in the dollar.

setwd('C:/Users/Z0047JBE/Desktop/dersler/IE360/hw1/datatables')
dollargoogletrend <- read_excel("GoogleDollar.xlsx", 
    col_types = c("date", "numeric"))

setnames(dollargoogletrend,names(dollargoogletrend),c('month','view'))
dollargoogletrend

## # A tibble: 203 x 2
##    month                view
##    <dttm>              <dbl>
##  1 2004-01-01 00:00:00     1
##  2 2004-02-01 00:00:00     1
##  3 2004-03-01 00:00:00     1
##  4 2004-04-01 00:00:00     1
##  5 2004-05-01 00:00:00     1
##  6 2004-06-01 00:00:00     1
##  7 2004-07-01 00:00:00     1
##  8 2004-08-01 00:00:00     1
##  9 2004-09-01 00:00:00     1
## 10 2004-10-01 00:00:00     1
## # ... with 193 more rows
…
COVID-19

The data set is obtained here: https://www.kaggle.com/gpreda/coronavirus-2019ncov

We will review the number of cases that are mentioned daily in Turkey with this data set.

setwd('C:/Users/Z0047JBE/Desktop/dersler/IE360/hw1/datatables')
covid <- read_excel('covid19.xlsx')
setnames(covid,names(covid),c('ConfirmedCases', 'DailyConfirmedCases', 'RecoveredCases','Deaths','Date'))
covid

## # A tibble: 246 x 5
##    ConfirmedCases DailyConfirmedCases RecoveredCases Deaths Date               
##             <dbl>               <dbl>          <dbl>  <dbl> <dttm>             
##  1             10                  10              0      0 2020-03-11 00:00:00
##  2             10                   0              0      0 2020-03-12 00:00:00
##  3             50                  40              0      0 2020-03-13 00:00:00
##  4             50                   0              0      0 2020-03-14 00:00:00
##  5             60                  10              0      0 2020-03-15 00:00:00
##  6            180                 120              0      0 2020-03-16 00:00:00
##  7            470                 290              0     10 2020-03-17 00:00:00
##  8            980                 510              0     10 2020-03-18 00:00:00
##  9           1920                 940              0     30 2020-03-19 00:00:00
## 10           3590                1670              0     40 2020-03-20 00:00:00
## # ... with 236 more rows
…
In the data we have obtained from Google Trends, we will look at the searches people make for the COVID19 Vaccine.

COVID19 Vaccine Searches on Google in Turkey

setwd('C:/Users/Z0047JBE/Desktop/dersler/IE360/hw1/datatables')
vaccinesearch <- read_excel('COVIDAsi.xlsx')
vaccinesearch

## # A tibble: 252 x 2
##    Date                Search
##    <dttm>               <dbl>
##  1 2020-03-10 00:00:00     11
##  2 2020-03-11 00:00:00      0
##  3 2020-03-12 00:00:00     11
##  4 2020-03-13 00:00:00     11
##  5 2020-03-14 00:00:00     13
##  6 2020-03-15 00:00:00     12
##  7 2020-03-16 00:00:00     11
##  8 2020-03-17 00:00:00      0
##  9 2020-03-18 00:00:00     16
## 10 2020-03-19 00:00:00     16
## # ... with 242 more rows
…
Apple Stock Prices

The data set is obtained here: https://www.kaggle.com/achintyatripathi/yahoo-finance-apple-inc-aapl?select=AAPL_daily_update.csv

In this data set, we can see the daily change of Apples shares in the last 1 year.

Apple Share Prices

setwd('C:/Users/Z0047JBE/Desktop/dersler/IE360/hw1/datatables')
stockprice <- read_excel('Applestock.xlsx')
stockprice

## # A tibble: 254 x 2
##    Date                ClosePrice
##    <dttm>                   <dbl>
##  1 2019-09-10 00:00:00   54174999
##  2 2019-09-11 00:00:00   55897499
##  3 2019-09-12 00:00:00   55772499
##  4 2019-09-13 00:00:00   54687500
##  5 2019-09-16 00:00:00   54974998
##  6 2019-09-17 00:00:00   55174999
##  7 2019-09-18 00:00:00   55692501
##  8 2019-09-19 00:00:00   55240002
##  9 2019-09-20 00:00:00   54432499
## 10 2019-09-23 00:00:00   54680000
## # ... with 244 more rows
…
In the chart above, we can say that stock prices have increased, except for a short period. Recently, the shares of technology companies have been increasing in general. We can also say that the pandemic started and a general uncertainty occurred for the period in which it fell.

We can say that the increase and decrease in the price of stocks is generally related to the interest of investors in those stocks.We can say that the increase and decrease in the price of stocks is generally related to the interest of investors in those stocks. We can draw an inference by looking at Google searches relevant to this interest.

Apple Search on Google all over the world

setwd('C:/Users/Z0047JBE/Desktop/dersler/IE360/hw1/datatables')
applesearch <- read_excel('AppleSearch.xlsx')
applesearch

## # A tibble: 62 x 2
##    Date                Search
##    <dttm>               <dbl>
##  1 2019-09-15 00:00:00    100
##  2 2019-09-22 00:00:00     81
##  3 2019-09-29 00:00:00     52
##  4 2019-10-06 00:00:00     52
##  5 2019-10-13 00:00:00     50
##  6 2019-10-20 00:00:00     47
##  7 2019-10-27 00:00:00     50
##  8 2019-11-03 00:00:00     49
##  9 2019-11-10 00:00:00     49
## 10 2019-11-17 00:00:00     49
## # ... with 52 more rows
…
